{
	"parent": "block/cube_bottom_top",
    "textures": {
        "side": "tardis:blocks/roundels/roundel_quartz_pillar",
        "top":"tardis:blocks/roundels/roundel_quartz_pillar_top",
        "bottom":"tardis:blocks/roundels/roundel_quartz_pillar_top"
    }
}