{
    "parent": "block/inner_stairs",
    "textures": {
        "bottom": "tardis:blocks/technology/tech_floor_plate",
        "top": "tardis:blocks/technology/tech_floor_plate",
        "side": "tardis:blocks/technology/tech_floor_plate"
    }
}
