{
	"variants":{
		"facing=north,enabled=false":{
			"model":"tardis:block/alembic",
			"y": 0
		},
		"facing=east,enabled=false":{
			"model":"tardis:block/alembic",
			"y": 90
		},
		"facing=south,enabled=false":{
			"model":"tardis:block/alembic",
			"y": 180
		},
		"facing=west,enabled=false":{
			"model":"tardis:block/alembic",
			"y": 270
		},
		"facing=north,enabled=true":{
			"model":"tardis:block/alembic_powered",
			"y": 0
		},
		"facing=east,enabled=true":{
			"model":"tardis:block/alembic_powered",
			"y": 90
		},
		"facing=south,enabled=true":{
			"model":"tardis:block/alembic_powered",
			"y": 180
		},
		"facing=west,enabled=true":{
			"model":"tardis:block/alembic_powered",
			"y": 270
		}
	}
}