{
  "variants": {
    "facing\u003dnorth": {
      "model": "tardis:block/wirebox",
      "y": 0
    },
    "facing\u003deast": {
      "model": "tardis:block/wirebox",
      "y": 90
    },
    "facing\u003dsouth": {
      "model": "tardis:block/wirebox",
      "y": 180
    },
    "facing\u003dwest": {
      "model": "tardis:block/wirebox",
      "y": 270
    }
  }
}