{
    "parent": "builtin/entity",
    "display": {
    	"inventory":{
			"rotation": [90, 45, 135],
			"translation": [0, 0, 0],
			"scale": [0.75, 0.75, 0.75]
		},
        "thirdperson_righthand": {
            "rotation": [0, 0, 0],
            "translation": [2, 4,8],
            "scale": [0.5, 0.5, 0.5]
        },
        "thirdperson_lefthand": {
            "rotation": [0, 0, 0],
            "translation": [-2.5, 4, 8],
            "scale": [0.5, 0.5, 0.5]
        },
        "firstperson_righthand": {
            "rotation": [0, 30, 0],
            "translation":[35, 1, -1],
            "scale": [2, 2, 2]
        },
        "firstperson_lefthand": {
           "rotation": [0, -30, 0],
            "translation":[-4, 1, -1],
            "scale": [2, 2, 2]
        },
        "gui": {
			"rotation": [0, 0, -45],
			"translation": [8, 2, 0],
			"scale": [1, 1, 1]
		},
        "ground": {
			"translation": [0, -2, 0],
			"scale": [0.5, 0.5, 0.5],
			"rotation": [90, 0, 0]
		},
        "fixed": {
            "rotation": [0, 0, 45],
            "translation": [-2.5, 9, 14]
        }
    }
}