{
	"type":"minecraft:crafting_shaped",
	"pattern":[
		" G ",
		"CDC",
		"OOO"
	],
	"key":{
		"G":{
			"item":"minecraft:glass"
		},
		"C":{
			"item":"tardis:circuits"
		},
		"O":{
			"item":"minecraft:obsidian"
		},
		"D":{
			"item":"minecraft:diamond"
		}
	},
	"result":{
		"item":"tardis:holo_observatory"
	}
}