{
  "type": "minecraft:crafting_shaped",
  "pattern":[
  "PPP",
  "GCG",
  "PPP"
  ],
  "key": {
  "C":
  {
  "item":"tardis:circuits"
  },
  "G":
  {
   "item": "minecraft:gold_ingot"
  },
  "P":
  {
  "item": "minecraft:green_stained_glass_pane"
  }
  },
  "result": {
    "item": "tardis:steampunk_monitor"
  }
}