{
	"lines":[
	"ARS Usage (Cont.)"
		,""
		,"To remove a room, use the tablet on an ARS Structure Void Block found at the entrance of a room."
		," Note that this only deletes one room at a time. This won't remove any rooms connected to the one being deleted."
	]
}