{
	"repair":"false",
	"ingredients":[
		"minecraft:ender_pearl",
		"minecraft:glass",
		"minecraft:iron_ingot",
		"tardis:xion_crystal"
	],
	"result":{
		"item":"tardis:dematerialisation_circuit"
	}
}