{
	"lines":[
	"Timeship Loyalty (Cont.)"
	," Finally, loyal Timeships will open their doors for their owner when the latter snaps their fingers and is within 16-20 blocks."
	," Overall, if you treat your Timeship well, then it will do so in return."
	]
}