{
	"lines":[
		"Part One: The Engine",
		" The Engine is the most crucial part of a time-ship, save the console.", 
		"", 
		"   This holds all your components, upgrades, artron banks, and also has a compartment for embuing things with Artron Energy."
	]
}