{
	"lines":[
	"Fluid Links", 
	"", 
	" A critial component of a time-ship, when it breaks it releases deadly mercury gas, so keep an eye on it", 
	"", 
	"It is repaired with a bottle of Mercury in a Multi Quantiscope"
	]
}