{
	"credit": "Made with Blockbench",
	"textures": {
		"5": "tardis:blocks/chalk_board",
		"particle":"tardis:blocks/chalk_board"
	},
	"elements": [
		{
			"from": [-7, 12, 12.5],
			"to": [23, 31, 13.5],
			"faces": {
				"north": {"uv": [0.125, 0.125, 3.875, 2.5], "texture": "#5"},
				"east": {"uv": [0, 0.125, 0.125, 2.5], "texture": "#5"},
				"south": {"uv": [4, 0.125, 7.75, 2.5], "texture": "#5"},
				"west": {"uv": [3.875, 0.125, 4, 2.5], "texture": "#5"},
				"up": {"uv": [3.875, 0.125, 0.125, 0], "texture": "#5"},
				"down": {"uv": [7.625, 0, 3.875, 0.125], "texture": "#5"}
			}
		},
		{
			"from": [23, 0, 12],
			"to": [24, 32, 14],
			"faces": {
				"north": {"uv": [1, 3.75, 1.125, 7.75], "texture": "#5"},
				"east": {"uv": [0.75, 3.75, 1, 7.75], "texture": "#5"},
				"south": {"uv": [1.375, 3.75, 1.5, 7.75], "texture": "#5"},
				"west": {"uv": [1.125, 3.75, 1.375, 7.75], "texture": "#5"},
				"up": {"uv": [1.125, 3.75, 1, 3.5], "texture": "#5"},
				"down": {"uv": [1.25, 3.5, 1.125, 3.75], "texture": "#5"}
			}
		},
		{
			"from": [23, 0.2294, 10.15328],
			"to": [24, 0.7294, 13.15328],
			"rotation": {"angle": -22.5, "axis": "x", "origin": [23.5, 0.2294, 10.65328]},
			"faces": {
				"north": {"uv": [2.5, 4.75, 2.875, 4.875], "texture": "#5"},
				"east": {"uv": [2.5, 4.75, 2.875, 4.875], "texture": "#5"},
				"south": {"uv": [2.5, 4.75, 2.875, 4.875], "texture": "#5"},
				"west": {"uv": [2.5, 4.75, 2.875, 4.875], "texture": "#5"},
				"up": {"uv": [2.5, 4.75, 2.875, 4.875], "texture": "#5"},
				"down": {"uv": [2.5, 4.75, 2.875, 4.875], "texture": "#5"}
			}
		},
		{
			"from": [23, 0, 10],
			"to": [24, 0.5, 16],
			"faces": {
				"north": {"uv": [4, 4.25, 4.125, 4.375], "texture": "#5"},
				"east": {"uv": [3.25, 4.25, 4, 4.375], "texture": "#5"},
				"south": {"uv": [4.875, 4.25, 5, 4.375], "texture": "#5"},
				"west": {"uv": [4.125, 4.25, 4.875, 4.375], "texture": "#5"},
				"up": {"uv": [4.125, 4.25, 4, 3.5], "texture": "#5"},
				"down": {"uv": [4.25, 3.5, 4.125, 4.25], "texture": "#5"}
			}
		},
		{
			"from": [23, -0.0206, 11.15328],
			"to": [24, 0.4794, 13.15328],
			"rotation": {"angle": -22.5, "axis": "x", "origin": [23.5, 0.2294, 10.65328]},
			"faces": {
				"north": {"uv": [1.75, 4.125, 1.875, 4.25], "texture": "#5"},
				"east": {"uv": [1.5, 4.125, 1.75, 4.25], "texture": "#5"},
				"south": {"uv": [2.125, 4.125, 2.25, 4.25], "texture": "#5"},
				"west": {"uv": [1.875, 4.125, 2.125, 4.25], "texture": "#5"},
				"up": {"uv": [1.875, 4.125, 1.75, 3.875], "texture": "#5"},
				"down": {"uv": [2, 3.875, 1.875, 4.125], "texture": "#5"}
			}
		},
		{
			"from": [23, 0.2294, 12.84672],
			"to": [24, 0.7294, 15.84672],
			"rotation": {"angle": 22.5, "axis": "x", "origin": [23.5, 0.2294, 15.34672]},
			"faces": {
				"north": {"uv": [1.875, 4.75, 2, 4.875], "texture": "#5"},
				"east": {"uv": [1.5, 4.75, 1.875, 4.875], "texture": "#5"},
				"south": {"uv": [2.375, 4.75, 2.5, 4.875], "texture": "#5"},
				"west": {"uv": [2, 4.75, 2.375, 4.875], "texture": "#5"},
				"up": {"uv": [2, 4.75, 1.875, 4.375], "texture": "#5"},
				"down": {"uv": [2.125, 4.375, 2, 4.75], "texture": "#5"}
			}
		},
		{
			"from": [23, -0.0206, 12.84672],
			"to": [24, 0.4794, 14.84672],
			"rotation": {"angle": 22.5, "axis": "x", "origin": [23.5, 0.2294, 15.34672]},
			"faces": {
				"north": {"uv": [3.5, 4.125, 3.625, 4.25], "texture": "#5"},
				"east": {"uv": [3.25, 4.125, 3.5, 4.25], "texture": "#5"},
				"south": {"uv": [3.875, 4.125, 4, 4.25], "texture": "#5"},
				"west": {"uv": [3.625, 4.125, 3.875, 4.25], "texture": "#5"},
				"up": {"uv": [3.625, 4.125, 3.5, 3.875], "texture": "#5"},
				"down": {"uv": [3.75, 3.875, 3.625, 4.125], "texture": "#5"}
			}
		},
		{
			"from": [23, -0.2706, 11.40328],
			"to": [24, 0.2294, 13.15328],
			"rotation": {"angle": -22.5, "axis": "x", "origin": [23.5, 0.2294, 10.65328]},
			"faces": {
				"north": {"uv": [4.375, 4.125, 4.5, 4.25], "texture": "#5"},
				"east": {"uv": [4.25, 4.125, 4.375, 4.25], "texture": "#5"},
				"south": {"uv": [4.625, 4.125, 4.75, 4.25], "texture": "#5"},
				"west": {"uv": [4.5, 4.125, 4.625, 4.25], "texture": "#5"},
				"up": {"uv": [4.5, 4.125, 4.375, 4], "texture": "#5"},
				"down": {"uv": [4.625, 4, 4.5, 4.125], "texture": "#5"}
			}
		},
		{
			"from": [23, -0.2706, 12.84672],
			"to": [24, 0.2294, 14.59672],
			"rotation": {"angle": 22.5, "axis": "x", "origin": [23.5, 0.2294, 15.34672]},
			"faces": {
				"north": {"uv": [1.375, 3.625, 1.5, 3.75], "texture": "#5"},
				"east": {"uv": [1.25, 3.625, 1.375, 3.75], "texture": "#5"},
				"south": {"uv": [1.625, 3.625, 1.75, 3.75], "texture": "#5"},
				"west": {"uv": [1.5, 3.625, 1.625, 3.75], "texture": "#5"},
				"up": {"uv": [1.5, 3.625, 1.375, 3.5], "texture": "#5"},
				"down": {"uv": [1.625, 3.5, 1.5, 3.625], "texture": "#5"}
			}
		},
		{
			"from": [-8, 0, 12],
			"to": [-7, 32, 14],
			"faces": {
				"north": {"uv": [0.25, 3.75, 0.375, 7.75], "texture": "#5"},
				"east": {"uv": [0, 3.75, 0.25, 7.75], "texture": "#5"},
				"south": {"uv": [0.625, 3.75, 0.75, 7.75], "texture": "#5"},
				"west": {"uv": [0.375, 3.75, 0.625, 7.75], "texture": "#5"},
				"up": {"uv": [0.375, 3.75, 0.25, 3.5], "texture": "#5"},
				"down": {"uv": [0.5, 3.5, 0.375, 3.75], "texture": "#5"}
			}
		},
		{
			"from": [-8, 0.2294, 10.15328],
			"to": [-7, 0.7294, 13.15328],
			"rotation": {"angle": -22.5, "axis": "x", "origin": [-7.5, 0.2294, 10.65328]},
			"faces": {
				"north": {"uv": [2.875, 3.875, 3, 4], "texture": "#5"},
				"east": {"uv": [2.5, 3.875, 2.875, 4], "texture": "#5"},
				"south": {"uv": [3.375, 3.875, 3.5, 4], "texture": "#5"},
				"west": {"uv": [3, 3.875, 3.375, 4], "texture": "#5"},
				"up": {"uv": [3, 3.875, 2.875, 3.5], "texture": "#5"},
				"down": {"uv": [3.125, 3.5, 3, 3.875], "texture": "#5"}
			}
		},
		{
			"from": [-8, 0, 10],
			"to": [-7, 0.5, 16],
			"faces": {
				"north": {"uv": [2.25, 4.25, 2.375, 4.375], "texture": "#5"},
				"east": {"uv": [1.5, 4.25, 2.25, 4.375], "texture": "#5"},
				"south": {"uv": [3.125, 4.25, 3.25, 4.375], "texture": "#5"},
				"west": {"uv": [2.375, 4.25, 3.125, 4.375], "texture": "#5"},
				"up": {"uv": [2.375, 4.25, 2.25, 3.5], "texture": "#5"},
				"down": {"uv": [2.5, 3.5, 2.375, 4.25], "texture": "#5"}
			}
		},
		{
			"from": [-8, -0.0206, 11.15328],
			"to": [-7, 0.4794, 13.15328],
			"rotation": {"angle": -22.5, "axis": "x", "origin": [-7.5, 0.2294, 10.65328]},
			"faces": {
				"north": {"uv": [1.75, 3.75, 1.875, 3.875], "texture": "#5"},
				"east": {"uv": [1.5, 3.75, 1.75, 3.875], "texture": "#5"},
				"south": {"uv": [2.125, 3.75, 2.25, 3.875], "texture": "#5"},
				"west": {"uv": [1.875, 3.75, 2.125, 3.875], "texture": "#5"},
				"up": {"uv": [1.875, 3.75, 1.75, 3.5], "texture": "#5"},
				"down": {"uv": [2, 3.5, 1.875, 3.75], "texture": "#5"}
			}
		},
		{
			"from": [-8, 0.2294, 12.84672],
			"to": [-7, 0.7294, 15.84672],
			"rotation": {"angle": 22.5, "axis": "x", "origin": [-7.5, 0.2294, 15.34672]},
			"faces": {
				"north": {"uv": [4.625, 3.875, 4.75, 4], "texture": "#5"},
				"east": {"uv": [4.25, 3.875, 4.625, 4], "texture": "#5"},
				"south": {"uv": [5.125, 3.875, 5.25, 4], "texture": "#5"},
				"west": {"uv": [4.75, 3.875, 5.125, 4], "texture": "#5"},
				"up": {"uv": [4.75, 3.875, 4.625, 3.5], "texture": "#5"},
				"down": {"uv": [4.875, 3.5, 4.75, 3.875], "texture": "#5"}
			}
		},
		{
			"from": [-8, -0.0206, 12.84672],
			"to": [-7, 0.4794, 14.84672],
			"rotation": {"angle": 22.5, "axis": "x", "origin": [-7.5, 0.2294, 15.34672]},
			"faces": {
				"north": {"uv": [3.375, 3.75, 3.5, 3.875], "texture": "#5"},
				"east": {"uv": [3.125, 3.75, 3.375, 3.875], "texture": "#5"},
				"south": {"uv": [3.75, 3.75, 3.875, 3.875], "texture": "#5"},
				"west": {"uv": [3.5, 3.75, 3.75, 3.875], "texture": "#5"},
				"up": {"uv": [3.5, 3.75, 3.375, 3.5], "texture": "#5"},
				"down": {"uv": [3.625, 3.5, 3.5, 3.75], "texture": "#5"}
			}
		},
		{
			"from": [-8, -0.2706, 11.40328],
			"to": [-7, 0.2294, 13.15328],
			"rotation": {"angle": -22.5, "axis": "x", "origin": [-7.5, 0.2294, 10.65328]},
			"faces": {
				"north": {"uv": [2.625, 4.125, 2.75, 4.25], "texture": "#5"},
				"east": {"uv": [2.5, 4.125, 2.625, 4.25], "texture": "#5"},
				"south": {"uv": [2.875, 4.125, 3, 4.25], "texture": "#5"},
				"west": {"uv": [2.75, 4.125, 2.875, 4.25], "texture": "#5"},
				"up": {"uv": [2.75, 4.125, 2.625, 4], "texture": "#5"},
				"down": {"uv": [2.875, 4, 2.75, 4.125], "texture": "#5"}
			}
		},
		{
			"from": [-8, -0.2706, 12.84672],
			"to": [-7, 0.2294, 14.59672],
			"rotation": {"angle": 22.5, "axis": "x", "origin": [-7.5, 0.2294, 15.34672]},
			"faces": {
				"north": {"uv": [0.625, 3.625, 0.75, 3.75], "texture": "#5"},
				"east": {"uv": [0.5, 3.625, 0.625, 3.75], "texture": "#5"},
				"south": {"uv": [0.875, 3.625, 1, 3.75], "texture": "#5"},
				"west": {"uv": [0.75, 3.625, 0.875, 3.75], "texture": "#5"},
				"up": {"uv": [0.75, 3.625, 0.625, 3.5], "texture": "#5"},
				"down": {"uv": [0.875, 3.5, 0.75, 3.625], "texture": "#5"}
			}
		},
		{
			"from": [-8, 31.25, 12],
			"to": [24, 32, 14],
			"faces": {
				"north": {"uv": [0.25, 2.75, 4.25, 2.875], "texture": "#5"},
				"east": {"uv": [0, 2.75, 0.25, 2.875], "texture": "#5"},
				"south": {"uv": [4.5, 2.75, 8.5, 2.875], "texture": "#5"},
				"west": {"uv": [4.25, 2.75, 4.5, 2.875], "texture": "#5"},
				"up": {"uv": [4.25, 2.75, 0.25, 2.5], "texture": "#5"},
				"down": {"uv": [8.25, 2.5, 4.25, 2.75], "texture": "#5"}
			}
		},
		{
			"from": [-7, 11, 12],
			"to": [23, 11.75, 14],
			"faces": {
				"north": {"uv": [0.25, 3.125, 4, 3.25], "texture": "#5"},
				"east": {"uv": [0, 3.125, 0.25, 3.25], "texture": "#5"},
				"south": {"uv": [4.25, 3.125, 8, 3.25], "texture": "#5"},
				"west": {"uv": [4, 3.125, 4.25, 3.25], "texture": "#5"},
				"up": {"uv": [4, 3.125, 0.25, 2.875], "texture": "#5"},
				"down": {"uv": [7.75, 2.875, 4, 3.125], "texture": "#5"}
			}
		},
		{
			"from": [-8.25, 22, 12.75],
			"to": [24.25, 22.5, 13.25],
			"faces": {
				"north": {"uv": [0.125, 3.375, 4.125, 3.5], "texture": "#5"},
				"east": {"uv": [0, 3.375, 0.125, 3.5], "texture": "#5"},
				"south": {"uv": [4.25, 3.375, 8.25, 3.5], "texture": "#5"},
				"west": {"uv": [4.125, 3.375, 4.25, 3.5], "texture": "#5"},
				"up": {"uv": [4.125, 3.375, 0.125, 3.25], "texture": "#5"},
				"down": {"uv": [8.125, 3.25, 4.125, 3.375], "texture": "#5"}
			}
		}
	],
	"display": {
		"thirdperson_righthand": {
			"rotation": [75, 45, 0],
			"translation": [0, 2.5, 0],
			"scale": [0.375, 0.375, 0.375]
		},
		"thirdperson_lefthand": {
			"rotation": [75, 45, 0],
			"translation": [0, 2.5, 0],
			"scale": [0.375, 0.375, 0.375]
		},
		"firstperson_righthand": {
			"rotation": [0, 45, 0],
			"scale": [0.4, 0.4, 0.4]
		},
		"firstperson_lefthand": {
			"rotation": [0, 225, 0],
			"scale": [0.4, 0.4, 0.4]
		},
		"ground": {
			"translation": [0, 3, 0],
			"scale": [0.25, 0.25, 0.25]
		},
		"gui": {
			"rotation": [30, 225, 0],
			"translation": [0.5, -1.75, 0],
			"scale": [0.25, 0.25, 0.25]
		},
		"head": {
			"translation": [0, 8, 0],
			"scale": [0.2, 0.2, 0.2]
		},
		"fixed": {
			"scale": [0.5, 0.5, 0.5]
		}
	},
	"groups": [
		{
			"name": "black_bord",
			"children": [0]
		},
		{
			"name": "fram_legs",
			"children": [
				{
					"name": "legs",
					"origin": [23.5, 0.2294, 10.34672],
					"children": [1, 2, 3, 4, 5, 6, 7, 8]
				},
				{
					"name": "leg",
					"origin": [23.5, 0.2294, 10.34672],
					"children": [9, 10, 11, 12, 13, 14, 15, 16]
				}, 17, 18, 19]
		}
	]
}