{
  "type": "minecraft:block",
  "pools": [
    {
    "name":"tardis:metal_grate_trapdoor",
      "rolls": 1,
      "entries": [
        {
          "type": "minecraft:item",
          "name": "tardis:metal_grate_trapdoor"
        }
      ]
    }
  ]
}
    